{"photos":{"page":1,"pages":18424,"perpage":20,"total":"368476","photo":[{"id":"50488216471","owner":"154141673@N06","secret":"1b198df714","server":"65535","farm":66,"title":"20201007 zuidasdok [marcel steinbach]","ispublic":1,"isfriend":0,"isfamily":0},{"id":"50488323372","owner":"186598367@N03","secret":"32765675e7","server":"65535","farm":66,"title":"Purchase The New Collection Of Flannel Shirts In Bulk From Flannel Clothing!","ispublic":1,"isfriend":0,"isfamily":0},{"id":"50488167401","owner":"189681331@N05","secret":"ba9fda4828","server":"65535","farm":66,"title":"I will design 5 stylish unique awesome branding luxury professional business card any","ispublic":1,"isfriend":0,"isfamily":0},{"id":"50488167406","owner":"189681331@N05","secret":"3b3f091028","server":"65535","farm":66,"title":"I will design 5 stylish unique awesome branding luxury professional business card any","ispublic":1,"isfriend":0,"isfamily":0},{"id":"50487461233","owner":"189681331@N05","secret":"ba00c7bf95","server":"65535","farm":66,"title":"I will design 5 stylish unique awesome branding luxury professional business card any","ispublic":1,"isfriend":0,"isfamily":0},{"id":"50487459743","owner":"116040846@N05","secret":"ab8baec135","server":"65535","farm":66,"title":"H\u00f4tel Akura, Amsterdam","ispublic":1,"isfriend":0,"isfamily":0},{"id":"50488103826","owner":"87270416@N05","secret":"3ae4457ccd","server":"65535","farm":66,"title":"2-8-2006 ENLACE HOTEL THE WESTIN PALACE-Madrid","ispublic":1,"isfriend":0,"isfamily":0},{"id":"50487907616","owner":"154141673@N06","secret":"7e2a225562","server":"65535","farm":66,"title":"20201007 valley [marcel steinbach]_MST6615","ispublic":1,"isfriend":0,"isfamily":0},{"id":"50487262978","owner":"146324091@N05","secret":"355fa7a5e7","server":"65535","farm":66,"title":"Endless Summer","ispublic":1,"isfriend":0,"isfamily":0},{"id":"49242141008","owner":"147872221@N08","secret":"a34e2a15b0","server":"65535","farm":66,"title":"Museumshafen-Amsterdam","ispublic":1,"isfriend":0,"isfamily":0},{"id":"49242807927","owner":"147872221@N08","secret":"86aed5e876","server":"65535","farm":66,"title":"Sunset in Amsterdam","ispublic":1,"isfriend":0,"isfamily":0},{"id":"50487167958","owner":"154141673@N06","secret":"68332a6bc5","server":"65535","farm":66,"title":"20201007 overzicht foto[marcel steinbach]_MST6572","ispublic":1,"isfriend":0,"isfamily":0},{"id":"50487872836","owner":"154141673@N06","secret":"ee90e3ee7b","server":"65535","farm":66,"title":"20201007 overzicht foto [marcel steinbach]_MST6468","ispublic":1,"isfriend":0,"isfamily":0},{"id":"50487165293","owner":"30379715@N04","secret":"ec124fb0a3","server":"65535","farm":66,"title":"(nu.1924) Band ontwerp cover design Entwurf Einband Jacob Nuiver 1892 - 1953","ispublic":1,"isfriend":0,"isfamily":0},{"id":"50487107238","owner":"87413031@N03","secret":"92fff53316","server":"65535","farm":66,"title":"NS 1137","ispublic":1,"isfriend":0,"isfamily":0},{"id":"50487756576","owner":"35422840@N03","secret":"1f64c34868","server":"65535","farm":66,"title":"LTE in Vught, 12-09-2020","ispublic":1,"isfriend":0,"isfamily":0},{"id":"50486928558","owner":"9987501@N08","secret":"86746b6cdb","server":"65535","farm":66,"title":"trip to spaarndam","ispublic":1,"isfriend":0,"isfamily":0},{"id":"50487613046","owner":"46599841@N02","secret":"e845a376f5","server":"65535","farm":66,"title":"Office in transformation 13","ispublic":1,"isfriend":0,"isfamily":0},{"id":"50487616131","owner":"88739721@N02","secret":"781a7ba5a6","server":"65535","farm":66,"title":"29-04-20 GVB Combino 2110 + 2055, Amsterdam - Centraal Station","ispublic":1,"isfriend":0,"isfamily":0},{"id":"50486899718","owner":"190105067@N03","secret":"8832bd52b1","server":"65535","farm":66,"title":"Trans Arabian Douglas DC-8-54AF ST-AJR","ispublic":1,"isfriend":0,"isfamily":0}]},"stat":"ok"}
